{
  "uuid": "0f035e15-b2f9-4d9c-a183-729c613063bb",
  "lastMigration": 20,
  "name": "API",
  "endpointPrefix": "",
  "latency": 0,
  "port": 3030,
  "hostname": "0.0.0.0",
  "routes": [
    {
      "uuid": "a37114d1-814a-4e03-913d-bf5c00330b7c",
      "documentation": "",
      "method": "get",
      "endpoint": "products",
      "responses": [
        {
          "uuid": "0e94925d-a8c3-46bc-a3a5-7110fb3c198a",
          "body": "{\"products\": [\r\n  {\r\n    \"id\": \"1\",\r\n    \"name\": \"Training long sleeve crop top\",\r\n    \"price\": \"26\",\r\n    \"sizes\": [\"S\",\"M\",\"L\",\"XL\"],\r\n    \"description\": \"Long sleeves, cropped length, the perfect combination. The Training Long Sleeve Crop Top has been carefully designed to be figure-flattering and functional with long raglan sleeves, a crew neck and thumbholes.\",\r\n    \"type\": \"regular\",\r\n    \"product\": \"top\",\r\n    \"collection\": \"training\",\r\n    \"category\": \"women\",\r\n    \"colors\": [\"cream\", \"yellow\",\"teal\"],\r\n    \"images\": [{\"cream\": [\"https://cdn.shopify.com/s/files/1/0156/6146/products/TRAININGLONGSLEEVECROPTOP-COCONUTWHITE81.A-Edit_ZH_c7bef204-6b20-4bdc-8bed-c88f88609674_885x.jpg?v=1654358837\", \"https://cdn.shopify.com/s/files/1/0156/6146/products/TRAININGLONGSLEEVECROPTOP-COCONUTWHITE100.B-Edit_ZH_b3dcff4b-c6d6-4a2a-a672-15d3cb01f687_855x.jpg?v=1654358837\",\"https://cdn.shopify.com/s/files/1/0156/6146/products/TRAININGLONGSLEEVECROPTOP-COCONUTWHITE84.C-Edit_ZH_ffad8b97-acbb-426e-b58c-b57b0bf4a9c4_855x.jpg?v=1654358837\"]}, {\"yellow\": [\"https://cdn.shopify.com/s/files/1/0156/6146/products/TrainingLongSleeveCropTop-GlitchYellow.A_ZH_ZH-2_new_885x.jpg?v=1654358838\",\"https://cdn.shopify.com/s/files/1/0156/6146/products/TrainingLongSleeveCropTop-GlitchYellow.C_ZH_ZH-2_new_855x.jpg?v=1654358838\",\"https://cdn.shopify.com/s/files/1/0156/6146/products/TrainingLongSleeveCropTop-GlitchYellow.B_ZH_ZH-2_new_855x.jpg?v=1654358838\"]}, {\"teal\": [\"https://cdn.shopify.com/s/files/1/0156/6146/products/TRAININGLONGSLEEVECROPTOPFAUNATEALB1A3G.A-Editcopy_CM_5162aed6-3dae-417c-b115-970062c7ce70_885x.jpg?v=1646350481\",\"https://cdn.shopify.com/s/files/1/0156/6146/products/TRAININGLONGSLEEVECROPTOPFAUNATEALB1A3G.C-Editcopy_CM_b5e71a7a-ab41-4346-80b7-8a8447f2a3a9_855x.jpg?v=1646350481\",\"https://cdn.shopify.com/s/files/1/0156/6146/products/TRAININGLONGSLEEVECROPTOPFAUNATEALB1A3G.B-Editcopy_CM_eaade669-537f-41fa-b61a-60c1ac0dec82_855x.jpg?v=1646350481\"]} ]\r\n  },\r\n  {\r\n    \"id\": \"2\",\r\n    \"name\": \"Bold Drop Arm Tank\",\r\n    \"price\": \"25\",\r\n    \"sizes\": [\"S\",\"M\",\"L\",\"XL\"],\r\n    \"description\": \"A bold design for even bolder moves. The Bold Drop Arm Tank offers lightweight comfort and a slight stretch to adapt to any exercise, with angled seams and a dipped hem to enhance your physique, and a striking Gymshark graphic on the back for a powerful aesthetic.\",\r\n    \"type\": \"slim fit\",\r\n    \"product\": \"tank\",\r\n    \"collection\": \"bold\",\r\n    \"category\": \"men\",\r\n    \"colors\": [\"grey\", \"navy\",\"orange\"],\r\n    \"images\": [{\"grey\": [\"https://cdn.shopify.com/s/files/1/0156/6146/products/BoldDropArmTankPebbleGreyA1A5Y-GBC0.BoldDropArmTankPebbleGreyA1A5Y-GBC06_ZH_ZH_3188b5a2-aa70-44ae-a817-13ee19fed61c_885x.jpg?v=1647041961\", \"https://cdn.shopify.com/s/files/1/0156/6146/products/BoldDropArmTankPebbleGreyA1A5Y-GBC0.BoldDropArmTankPebbleGreyA1A5Y-GBC04_ZH_ZH_fd8fffd6-cdee-4296-a423-ba910f24961d_855x.jpg?v=1647041961\",\"https://cdn.shopify.com/s/files/1/0156/6146/products/BoldDropArmTankPebbleGreyA1A5Y-GBC0.BoldDropArmTankPebbleGreyA1A5Y-GBC07_ZH_ZH_9f8b1e3f-1f67-4aa5-bdfb-9cb5b9545f97_855x.jpg?v=1647041961\"]}, {\"navy\": [\"https://cdn.shopify.com/s/files/1/0156/6146/products/BoldDropArmTankNavyA1A5Y-UBCY.A-Edit.HK_58d5928e-b060-4876-afec-07b2674247d4_885x.jpg?v=1647041960\",\"https://cdn.shopify.com/s/files/1/0156/6146/products/BoldDropArmTankNavyA1A5Y-UBCY.B-Edit.HK_3bac8ec9-7afb-4b4a-b37f-7e6842a0d88b_855x.jpg?v=1647041960\",\"https://cdn.shopify.com/s/files/1/0156/6146/products/BoldDropArmTankNavyA1A5Y-UBCY.D3-Edit.HK_4969c54f-3fb9-4481-bf7e-4d230a431e7b_855x.jpg?v=1647041960\"]}, {\"orange\": [\"https://cdn.shopify.com/s/files/1/0156/6146/products/BoldDropArmTankClayOrangeA1A5Y-OBCK.B-Edit.HK_b7b493bb-567d-4cf1-9fc6-8bb063899c23_885x.jpg?v=16470419601\",\"https://cdn.shopify.com/s/files/1/0156/6146/products/BoldDropArmTankClayOrangeA1A5Y-OBCK.A-Edit.HK_eff8c5ac-c72d-44f0-9621-4abe349d1368_855x.jpg?v=1647041960\",\"https://cdn.shopify.com/s/files/1/0156/6146/products/BoldDropArmTankClayOrangeA1A5Y-OBCK.D3-Edit-2.HK_0cfa35e6-0083-441b-b23c-6406dc2b4246_855x.jpg?v=1647041960\"]} ]\r\n  },\r\n  {\r\n    \"id\": \"3\",\r\n    \"name\": \"Arrival 5'' Shorts\",\r\n    \"price\": \"24\",\r\n    \"sizes\": [\"S\",\"M\",\"L\",\"XL\"],\r\n    \"description\": \"Train freely and purposefully in the Arrival 5” Shorts. With a short 5-inch inseam alongside a lightweight, sweat-wicking material and supportive adjustable waistband, you can trust that these shorts will allow you to move in every direction with ease and confidence, rep after rep or step after step.\",\r\n    \"type\": \"5''\",\r\n    \"product\": \"shorts\",\r\n    \"collection\": \"arrival\",\r\n    \"category\": \"men\",\r\n    \"colors\": [\"print\", \"olive\",\"grey\"],\r\n    \"images\": [{\"grey\": [\"https://cdn.shopify.com/s/files/1/0156/6146/products/ArrivalSlim5-ShortRep-M-A0016LightGreyA2A1M-GBGJ-Edit.HK_885x.jpg?v=1644430185\",\"https://cdn.shopify.com/s/files/1/0156/6146/products/ArrivalSlim5-ShortRep-M-A0016LightGreyA2A1M-GBGJ1-Edit.HK_855x.jpg?v=1644430185\",\"https://cdn.shopify.com/s/files/1/0156/6146/products/ArrivalSlim5-ShortRep-M-A0016LightGreyA2A1M-GBGJ5-Edit.HK_855x.jpg?v=1644430185\"]}, {\"navy\": [\"https://cdn.shopify.com/s/files/1/0156/6146/products/ArrivalSlim5-ShortNavyA1A2H-UBCY.A_ZH_ZH_885x.jpg?v=1644430185\",\"https://cdn.shopify.com/s/files/1/0156/6146/products/ArrivalSlim5-ShortNavyA1A2H-UBCY.B_ZH_ZH_855x.jpg?v=1644430185\",\"https://cdn.shopify.com/s/files/1/0156/6146/products/ArrivalSlim5-ShortNavyA1A2H-UBCY.D3_ZH_ZH_855x.jpg?v=1644430185\"]}, {\"orange\": [\"https://cdn.shopify.com/s/files/1/0156/6146/products/ArrivalSlim5-ShortPapayaOrangeA2A1M-OBC7-Edit_885x.jpg?v=1644430186\",\"https://cdn.shopify.com/s/files/1/0156/6146/products/ArrivalSlim5-ShortPapayaOrangeA2A1M-OBC71-Edit_855x.jpg?v=1644430186\",\"https://cdn.shopify.com/s/files/1/0156/6146/products/ArrivalSlim5-ShortPapayaOrangeA2A1M-OBC74-Edit_855x.jpg?v=1644430186\"]} ]\r\n  },\r\n  {\r\n    \"id\": \"4\",\r\n    \"name\": \"Crew Socks 3pk\",\r\n    \"price\": \"16\",\r\n    \"sizes\": [\"S\",\"M\",\"L\",\"XL\"],\r\n    \"description\": \"The Gymshark Crew Socks provide comfort, cushioning and contouring with a mix of reinforced stretch and ribbing and a flattering fit to the calf. You can be sure you’ll step with support and step with style, from treadmill to sidewalk.\",\r\n    \"type\": \"regular\",\r\n    \"product\": \"socks\",\r\n    \"collection\": \"crew\",\r\n    \"category\": \"accesories\",\r\n    \"colors\": [\"dark multi-color\", \"light multi-color\",\"white\"],\r\n    \"images\": [{\"dark multi-color\": [\"https://cdn.shopify.com/s/files/1/0156/6146/products/CrewSocks3pk-Navy-AthleticBlue-LightGreyMarlI1A2F-UBR44_ZH_ZH_885x.jpg?v=1649169628\",\"https://cdn.shopify.com/s/files/1/0156/6146/products/CrewSocks3pk-Navy-AthleticBlue-LightGreyMarlI1A2F-UBR43_ZH_ZH_855x.jpg?v=1649169628\",\"https://cdn.shopify.com/s/files/1/0156/6146/products/CrewSocks3pk-Navy-AthleticBlue-LightGreyMarlI1A2F-UBR48_ZH_ZH_855x.jpg?v=1649169628\"]}, {\"light multi-color\": [\"https://cdn.shopify.com/s/files/1/0156/6146/products/CrewSocks3pk-FadedLilac-LavenderBlue-CucumberGreen-I1A2F-PBH33_ZH_ZH_855x.jpg?v=1649169626\",\"https://cdn.shopify.com/s/files/1/0156/6146/products/CrewSocks3pk-FadedLilac-LavenderBlue-CucumberGreen-I1A2F-PBH31_ZH_ZH_855x.jpg?v=1649169626\",\"https://cdn.shopify.com/s/files/1/0156/6146/products/CrewSocks3pk-FadedLilac-LavenderBlue-CucumberGreen-I1A2F-PBH35_ZH_ZH_855x.jpg?v=1649169626\"]}, {\"white\": [\"https://cdn.shopify.com/s/files/1/0156/6146/products/CREWSOCKS_3PK_-WHITE.A-Edit_95749cb6-d0a2-4aeb-a9a4-a5c869283634_885x.jpg?v=1638162383\",\"https://cdn.shopify.com/s/files/1/0156/6146/products/CREWSOCKS_3PK_-WHITE.D1-Edit_1885d039-9ac9-4f5c-8cdb-6a96b39bed71_855x.jpg?v=1638162383\",\"https://cdn.shopify.com/s/files/1/0156/6146/products/CREWSOCKS_3PK_-WHITE.D3-Edit_b771f944-da24-48c1-a180-d93b0aaab4c1_855x.jpg?v=1638162383\"]} ]\r\n  },\r\n  {\r\n    \"id\": \"5\",\r\n    \"name\": \"Vital Seamless 2.0 Leggings\",\r\n    \"price\": \"50\",\r\n    \"sizes\": [\"S\",\"M\",\"L\",\"XL\"],\r\n    \"description\": \"You can do it all, and so can the Vital Seamless 2.0 Leggings, whether you’re training, resting, or taking your morning walk. A seamless design with figure-contouring shading means comfort and confidence from workout to time out, while the sweat-wicking tech and breathable marl mesh dots keep you cool and dry on the days you’re moving more. Mix and match with a Vital Seamless 2.0 top, and you’re fully prepped to do it all.\",\r\n    \"type\": \"high-waisted fit\",\r\n    \"product\": \"leggings\",\r\n    \"collection\": \"vital\",\r\n    \"category\": \"women\",\r\n    \"colors\": [\"brown\", \"pink\",\"purple\"],\r\n    \"images\": [{\"brown\": [\"https://cdn.shopify.com/s/files/1/0156/6146/products/VITALSEAMLESSLEGGINGS-PENNYBROWNMARL18_ZH_ZH_5909076f-b11f-4a35-9dcf-2fcd53a60bcd_885x.jpg?v=1652911543\",\"https://cdn.shopify.com/s/files/1/0156/6146/products/VITALSEAMLESSLEGGINGS-PENNYBROWNMARL33._ZH_ZH_596222c3-71c8-416c-89f4-ed615d46456e_855x.jpg?v=1652911543\",\"https://cdn.shopify.com/s/files/1/0156/6146/products/VITALSEAMLESSLEGGINGS-PENNYBROWNMARL40._ZH_ZH_855x.jpg?v=1652911543\"]}, {\"pink\": [\"https://cdn.shopify.com/s/files/1/0156/6146/products/VitalSeamlessWLeggingsSorbetPink-Marl-B1A2B-KBCS.A_ZH_ZH_885x.jpg?v=1650999018\",\"https://cdn.shopify.com/s/files/1/0156/6146/products/VitalSeamlessWLeggingsSorbetPink-Marl-B1A2B-KBCS.B_ZH_ZH_855x.jpg?v=1650999018\",\"https://cdn.shopify.com/s/files/1/0156/6146/products/VitalSeamlessWLeggingsSorbetPink-Marl-B1A2B-KBCS.C_ZH_ZH_855x.jpg?v=1650999018\"]}, {\"purple\": [\"https://cdn.shopify.com/s/files/1/0156/6146/products/VitalSeamlessLeggingsBrightPurpleMarlB1A2B-PBBX.A-Edit_Edit_HK_1_49a0fe51-5fb3-4b1a-b9c3-6bde38e7b752_885x.jpg?v=1649100194\",\"https://cdn.shopify.com/s/files/1/0156/6146/products/VitalSeamlessLeggingsBrightPurpleMarlB1A2B-PBBX.B-Edit-Edit_Edit_HK_1372debf-0bc1-4949-a21d-8dddbd915f2e_855x.jpg?v=1649100194\",\"https://cdn.shopify.com/s/files/1/0156/6146/products/VitalSeamlessLeggingsBrightPurpleMarlB1A2B-PBBX.C-Edit_Edit_HK_a56879d7-d985-4e4a-8ac8-0b64a7f1f8c2_855x.jpg?v=1649100194\"]} ]\r\n  },\r\n  {\r\n    \"id\": \"6\",\r\n    \"name\": \"Everyday Holdall\",\r\n    \"price\": \"42\",\r\n    \"sizes\": [\"S\",\"M\",\"L\",\"XL\"],\r\n    \"description\": \"Your work-to-gym hybrid. The Everyday Gym Bag is specifically designed for your everyday items, with a wet pocket for gym kit and slip pockets for work essentials, as well as a main-entry space for anything else you need for the journey. Complete with super comfy padded carry handles and shoulder strap.\",\r\n    \"type\": \"regular\",\r\n    \"product\": \"bag\",\r\n    \"collection\": \"everyday\",\r\n    \"category\": \"accesories\",\r\n    \"colors\": [\"grey\", \"green\",\"pink\"],\r\n    \"images\": [{\"grey\": [\"https://cdn.shopify.com/s/files/1/0156/6146/products/EverydayHoldallLightGreyI1A1G-GBCM9_ZH_ZH_885x.jpg?v=1653468653\",\"https://cdn.shopify.com/s/files/1/0156/6146/products/EverydayHoldallLightGreyI1A1G-GBCM1_ZH_ZH_b1623549-787b-4529-a090-69fe431d7fd3_855x.jpg?v=1653468653\",\"https://cdn.shopify.com/s/files/1/0156/6146/products/EverydayHoldallLightGreyI1A1G-GBCM6_ZH_ZH_ce9270ef-50f3-44c5-8833-c3d31e73f0b3_855x.jpg?v=1653468653\"]}, {\"green\": [\"https://cdn.shopify.com/s/files/1/0156/6146/products/EverydayHoldallCucumberGreen-I1A1G-EBF2170_ZH_ZH_288edeb7-e96d-4179-a096-662d3c24b996_885x.jpg?v=1653919358\",\"https://cdn.shopify.com/s/files/1/0156/6146/products/EverydayHoldallCucumberGreen-I1A1G-EBF274_ZH_ZH_05afffed-880c-4a60-8535-0ad85c710c6e_855x.jpg?v=1653919358\",\"https://cdn.shopify.com/s/files/1/0156/6146/products/EverydayHoldallCucumberGreen-I1A1G-EBF276_ZH_ZH_fc4a1035-73e7-47c6-aa04-37dfab0b04cf_855x.jpg?v=1653919358\"]}, {\"pink\": [\"https://cdn.shopify.com/s/files/1/0156/6146/products/EverydayHoldallOrchidPinkI1A1G-KBBL.AllImages2_971ade3f-e024-4a5c-afd5-d5cbb2b4e5b9_885x.jpg?v=1653919325\",\"https://cdn.shopify.com/s/files/1/0156/6146/products/EverydayHoldallOrchidPinkI1A1G-KBBL2_ZH_ZH_855.jpg?v=1653919325\",\"https://cdn.shopify.com/s/files/1/0156/6146/products/EverydayHoldallOrchidPinkI1A1G-KBBL4_ZH_ZH_855x.jpg?v=1653919325\"]} ]\r\n  },\r\n  {\r\n    \"id\": \"7\",\r\n    \"name\": \"Vital Seamless 2.0 Shorts\",\r\n    \"price\": \"40\",\r\n    \"sizes\": [\"S\",\"M\",\"L\",\"XL\"],\r\n    \"description\": \"Feel your power in the Vital Seamless 2.0 Shorts. With the same material and design features as the Vital Seamless Leggings, they are just as flattering and just as performance ready. With contouring shading, a high waist and a range of stylish colours, you’ll be more than ready for any workout.\",\r\n    \"type\": \"body fit\",\r\n    \"product\": \"shorts\",\r\n    \"collection\": \"vital\",\r\n    \"category\": \"women\",\r\n    \"colors\": [\"black\", \"teal\",\"green\"],\r\n    \"images\": [{\"black\": [\"https://cdn.shopify.com/s/files/1/0156/6146/products/VITALSEAMLESSSHORTB1A4J-BBF3-XS-AI1BLACKMARL6.A_GB_EDIT_GB_BK_885x.jpg?v=1651832368\",\"https://cdn.shopify.com/s/files/1/0156/6146/products/VITALSEAMLESSSHORTB1A4J-BBF3-XS-AI1BLACKMARL19.B_GB_EDIT_GB_BK_855x.jpg?v=1651832368\",\"https://cdn.shopify.com/s/files/1/0156/6146/products/VITALSEAMLESSSHORTB1A4J-BBF3-XS-AI1BLACKMARL17.C_GB_EDIT_GB_BK_855x.jpg?v=1651832368\"]}, {\"teal\": [\"https://cdn.shopify.com/s/files/1/0156/6146/products/VitalSeamlessShortsTahoeTealMarlB1A4J-TBBS.A-Edit_Edit_HK_885x.jpg?v=1644430300\",\"https://cdn.shopify.com/s/files/1/0156/6146/products/VitalSeamlessShortsTahoeTealMarlB1A4J-TBBS.B-Edit_Edit_HK_855x.jpg?v=1644430300\",\"https://cdn.shopify.com/s/files/1/0156/6146/products/VitalSeamlessShortsTahoeTealMarlB1A4J-TBBS.C-Edit_Edit_HK_855x.jpg?v=1644430300\"]}, {\"green\": [\"https://cdn.shopify.com/s/files/1/0156/6146/products/VITALSEAMLESSSHORTOBSIDIANGREENMARLB1A4J-EBDK-XS-AI1.A_GB_EDIT_ZH_dea68c13-1d19-412f-aa4e-067cc5c0cf72_885x.jpg?v=1652911497\",\"https://cdn.shopify.com/s/files/1/0156/6146/products/VITALSEAMLESSSHORTOBSIDIANGREENMARLB1A4J-EBDK-XS-AI1.C_GB_EDIT_ZH_855x.jpg?v=1652911497\",\"https://cdn.shopify.com/s/files/1/0156/6146/products/VITALSEAMLESSSHORTOBSIDIANGREENMARLB1A4J-EBDK-XS-AI1.B_GB_EDIT_ZH_855x.jpg?v=1652911497\"]} ]\r\n  },\r\n  {\r\n    \"id\": \"8\",\r\n    \"name\": \"Essential Oversized T-Shirt\",\r\n    \"price\": \"26\",\r\n    \"sizes\": [\"S\",\"M\",\"L\",\"XL\"],\r\n    \"description\": \"Our Essential collection takes it back to basics and does it well. Classic styles, versatile colours and simple designs mean no gym bag is complete without one of these pieces, whether you’re training, commuting, or resting.\",\r\n    \"type\": \"oversized\",\r\n    \"product\": \"t-shirt\",\r\n    \"collection\": \"essentials\",\r\n    \"category\": \"men\",\r\n    \"colors\": [\"pink\", \"blue\",\"grey\"],\r\n    \"images\": [{\"pink\": [\"https://cdn.shopify.com/s/files/1/0156/6146/products/EssentialOversizedT-ShirtNevadaPinkA1A3E-KBCG.A-Edit.HK_885x.jpg?v=1646854356\",\"https://cdn.shopify.com/s/files/1/0156/6146/products/EssentialOversizedT-ShirtNevadaPinkA1A3E-KBCG.B-Edit.HK_855x.jpg?v=1646854356\",\"https://cdn.shopify.com/s/files/1/0156/6146/products/EssentialOversizedT-ShirtNevadaPinkA1A3E-KBCG.C-Edit.HK_855x.jpg?v=1646854356\"]}, {\"blue\": [\"https://cdn.shopify.com/s/files/1/0156/6146/products/EssentialOversizedT-ShirtLinenBlueA1A3E-UBD8.A-Edit.HK_885x.jpg?v=1646854355\",\"https://cdn.shopify.com/s/files/1/0156/6146/products/EssentialOversizedT-ShirtLinenBlueA1A3E-UBD8.B-Edit.HK_855x.jpg?v=1646854355\",\"https://cdn.shopify.com/s/files/1/0156/6146/products/EssentialOversizedT-ShirtLinenBlueA1A3E-UBD8.C-Edit.HK_855x.jpg?v=1646854355\"]}, {\"grey\": [\"https://cdn.shopify.com/s/files/1/0156/6146/products/OversizedT-ShirtCharcoalCoreMarlA1A3E.A-Edit_BK_f73b9742-2846-4048-8715-0a372e399a70_885x.jpg?v=1647041693\",\"https://cdn.shopify.com/s/files/1/0156/6146/products/OversizedT-ShirtCharcoalCoreMarlA1A3E.B-Edit_BK_4517c2b1-00ab-40fb-8377-c5169db0f1c7_855x.jpg?v=1647041693\",\"https://cdn.shopify.com/s/files/1/0156/6146/products/OversizedT-ShirtCharcoalCoreMarlA1A3E.C-Edit_BK_af2540e2-8354-464b-ac90-a2b3487563c1_855x.jpg?v=1647041693\"]} ]\r\n  },\r\n  {\r\n    \"id\": \"9\",\r\n    \"name\": \"74OZ Water Bottle\",\r\n    \"price\": \"18\",\r\n    \"sizes\": [\"74OZ\"],\r\n    \"description\": \"Stay hydrated throughout the day, wherever you go, with the Half Gallon Water Bottle. A 74 oz capacity means you’ll never go thirsty, while an easy-hold side handle and harnessed screw cap make it a convenient carry along.\",\r\n    \"type\": \"74OZ\",\r\n    \"product\": \"bottle\",\r\n    \"collection\": \"bottles\",\r\n    \"category\": \"accesories\",\r\n    \"colors\": [\"black\", \"green\",\"pink\"],\r\n    \"images\": [{\"black\": [\"https://cdn.shopify.com/s/files/1/0156/6146/products/2.2LWaterBottleBlackI1A2U201-Edit_BK_855x.jpg?v=1638161835\",\"https://cdn.shopify.com/s/files/1/0156/6146/products/2.2LWaterBottleBlackI1A2U27-Edit_BK_855x.jpg?v=1638161835\",\"https://cdn.shopify.com/s/files/1/0156/6146/products/2.2LWaterBottleBlackI1A2U32_BK_855x.jpg?v=1638161835\"]}, {\"green\": [\"https://cdn.shopify.com/s/files/1/0156/6146/products/2.2LWaterBottleAlpineGreen-I1A2U-EBFW5_ZH_ZH_46f3439f-7202-4f88-9b0d-8fcefba617e7_855x.jpg?v=1650999028\",\"https://cdn.shopify.com/s/files/1/0156/6146/products/2.2LWaterBottleAlpineGreen-I1A2U-EBFW8_ZH_ZH_054220c6-76b2-495b-b73e-ff15589a4ff4_855x.jpg?v=1650999028\",\"https://cdn.shopify.com/s/files/1/0156/6146/products/2.2LWaterBottleAlpineGreen-I1A2U-EBFW_ZH_ZH_eb27eda0-1383-4a8a-8b76-4de805d49b74_855x.jpg?v=1650999028\"]}, {\"pink\": [\"https://cdn.shopify.com/s/files/1/0156/6146/products/1.3LWaterBottlePaigePinkI1A2J-KBCH2_ZH_ZH_d0c95175-8413-4240-89c9-f1487d09ba87_855x.jpg?v=1650999027\",\"https://cdn.shopify.com/s/files/1/0156/6146/products/1.3LWaterBottlePaigePinkI1A2J-KBCH4_ZH_ZH_9f66fda4-c2f6-4c69-9ae0-9f667021e433_855x.jpg?v=1650999027\",\"https://cdn.shopify.com/s/files/1/0156/6146/products/1.3LWaterBottlePaigePinkI1A2J-KBCH5_ZH_ZH_345b585c-d29a-4567-8d5b-970eacf043f2_855x.jpg?v=1650999027\"]} ]\r\n  },\r\n  {\r\n    \"id\": \"10\",\r\n    \"name\": \"Sharkhead Cap\",\r\n    \"price\": \"26\",\r\n    \"sizes\": [\"U\"],\r\n    \"description\": \"\",\r\n    \"type\": \"structured\",\r\n    \"product\": \"cap\",\r\n    \"collection\": \"sharkhead\",\r\n    \"category\": \"accesories\",\r\n    \"colors\": [\"black\", \"grey\",\"pink print\"],\r\n    \"images\": [{\"grey\": [\"https://cdn.shopify.com/s/files/1/0156/6146/products/SharkheadCapBlackI1A6R-BBBB001-Edit_BK_855x.jpg?v=1647865065\",\"https://cdn.shopify.com/s/files/1/0156/6146/products/SharkheadCapBlack-I1A6R-BBBB.0087.A-Edit_BK_42b1cad4-11f5-465d-a611-bc30919f3d8f_855x.jpg?v=1647865066\",\"https://cdn.shopify.com/s/files/1/0156/6146/products/SharkheadCapBlackI1A6R-BBBB003-Edit_BK_855x.jpg?v=1647865067\"]}, {\"grey\": [\"https://cdn.shopify.com/s/files/1/0156/6146/products/SharkheadCapLightGreyI1A6R-GBCM005-Edit_BK_855x.jpg?v=1647865066\",\"https://cdn.shopify.com/s/files/1/0156/6146/products/SharkheadCapLightGrey-I1A6R-GBCM.0075.C-Edit_BK_86dd3a30-c126-42ff-8969-37b8326f5526_855x.jpg?v=1647865067\",\"https://cdn.shopify.com/s/files/1/0156/6146/products/SharkheadCapLightGrey-I1A6R-GBCM.0082.D3-Edit_BK_859d92e3-2f2b-4cc7-b298-990cd4b08dbb_855x.jpg?v=1647865067\"]}, {\"pink print\": [\"https://cdn.shopify.com/s/files/1/0156/6146/products/SharkheadCapREP-A-A0034SorbetPink-I1A6R-KBC9.0047.A-Edit_BK_eecb44d3-5bfb-4024-8cb0-76c346c235e1_855x.jpg?v=1648135168\",\"https://cdn.shopify.com/s/files/1/0156/6146/products/SharkheadCapREP-A-A0034SorbetPink-I1A6R-KBC9.0055.D1-Edit_BK_70af4dc7-66b2-40b1-8063-a42c5adc3c17_855x.jpg?v=1648135169\",\"https://cdn.shopify.com/s/files/1/0156/6146/products/SharkheadCapREP-A-A0034SorbetPinkI1A6R-KBC9003-Edit_BK_855x.jpg?v=1648135169\"]} ]\r\n  },\r\n  {\r\n    \"id\": \"11\",\r\n    \"name\": \"Training Leggings\",\r\n    \"price\": \"38\",\r\n    \"sizes\": [\"S\",\"M\",\"L\",\"XL\"],\r\n    \"description\": \"High waist and a flattering length, what more could you want from a staple legging? The Training Leggings have style and comfort in the bag. Available in versatile colours making them the perfect pairing to any sports bra, crop top or t-shirt.\",\r\n    \"type\": \"high rise fit\",\r\n    \"product\": \"leggings\",\r\n    \"collection\": \"training\",\r\n    \"category\": \"women\",\r\n    \"colors\": [\"navy\", \"green print\",\"black\"],\r\n    \"images\": [{\"navy\": [\"https://cdn.shopify.com/s/files/1/0156/6146/products/TRAININGFULLLENGTHLEGGINGS-NAVY22.A-EditHK_ZH_ZH_HK_cc919d68-7886-4590-9711-20879fd210d9_855x.jpg?v=1647041975\",\"https://cdn.shopify.com/s/files/1/0156/6146/products/TRAININGFULLLENGTHLEGGINGS-NAVY29.C-EditHK_ZH_ZH_HK_23c5d32c-8504-45a0-b8a0-fa8646c10075_855x.jpg?v=1647041975\",\"https://cdn.shopify.com/s/files/1/0156/6146/products/TRAININGFULLLENGTHLEGGINGS-NAVY37.D2-EditHK_ZH_ZH_HK_c26daa9f-fa79-48fe-a113-8d2206e06891_855x.jpg?v=1647041975\"]}, {\"green print\": [\"https://cdn.shopify.com/s/files/1/0156/6146/products/TrainingLeggingsRep-L-A0018CoreOlive-B2A8F-EBJK.TrainingLeggingsRep-L-A0018CoreOlive-B2A8F-EBJK1_ZH_ZH_fe33f01d-238b-4f79-88a8-5d122fb4e6ea_855x.jpg?v=1652912201\",\"https://cdn.shopify.com/s/files/1/0156/6146/products/TrainingLeggingsRep-L-A0018CoreOlive-B2A8F-EBJK.TrainingLeggingsRep-L-A0018CoreOlive-B2A8F-EBJK3_ZH_ZH_6e194001-787c-4be5-bd26-3fba1608d901_855x.jpg?v=1652912201\",\"https://cdn.shopify.com/s/files/1/0156/6146/products/TrainingLeggingsRep-L-A0018CoreOlive-B2A8F-EBJK.TrainingLeggingsRep-L-A0018CoreOlive-B2A8F-EBJK5_ZH_ZH_8f5aebb5-7721-4e69-ae32-8f0ace4a5baf_855x.jpg?v=1652912201\"]}, {\"black\": [\"https://cdn.shopify.com/s/files/1/0156/6146/products/TRAININGFULLLENGTHLEGGINGSB1A1T-BBBB-XS-BZ1BLACK20.A-Edit_AS_44730379-ddc7-4137-b31d-86542382ce0d_855x.jpg?v=1644430261\",\"https://cdn.shopify.com/s/files/1/0156/6146/products/TRAININGFULLLENGTHLEGGINGSB1A1T-BBBB-XS-BZ1BLACK38.C-Edit_AS_68a1548b-ab3d-4a5e-912d-78f625579eb3_855x.jpg?v=1644430261\",\"https://cdn.shopify.com/s/files/1/0156/6146/products/TRAININGFULLLENGTHLEGGINGSB1A1T-BBBB-XS-BZ1BLACK64.D3-Edit_AS_7cf9c34f-0a90-49c8-be1d-0ec6db51f559_855x.jpg?v=1644430262\"]} ]\r\n  },\r\n  {\r\n    \"id\": \"12\",\r\n    \"name\": \"Vital Seamless 2.0 Long Sleeve Crop Top\",\r\n    \"price\": \"40\",\r\n    \"sizes\": [\"S\",\"M\",\"L\",\"XL\"],\r\n    \"description\": \"Endeavour to perform in the Vital Seamless 2.0 Long Sleeve Crop Top. Look and feel at your best in the gym with an elegant crop and form-enhancing fit combined with sweat-wicking technology and supportive fabrics. A versatile addition to your workout wardrobe in a variety of colours to choose from.\",\r\n    \"type\": \"body fit\",\r\n    \"product\": \"top\",\r\n    \"collection\": \"vital\",\r\n    \"category\": \"women\",\r\n    \"colors\": [\"purple\", \"grey\",\"black\"],\r\n    \"images\": [{\"purple\": [\"https://cdn.shopify.com/s/files/1/0156/6146/products/VitalSeamlessCropTopBrightPurpleMarlB1A3D-PBBX.A-Edit_Edit_HK_51dc10be-4868-4d73-9354-8f958f25e7e0_855x.jpg?v=1652912021\",\"https://cdn.shopify.com/s/files/1/0156/6146/products/VitalSeamlessCropTopBrightPurpleMarlB1A3D-PBBX.D2-Edit_Edit_HK_1ca961d8-a6e2-4738-8b1a-289d0f3b1465_855x.jpg?v=1652912021\",\"https://cdn.shopify.com/s/files/1/0156/6146/products/VitalSeamlessCropTopBrightPurpleMarlB1A3D-PBBX.D3-Edit_Edit_HK_6debbdb6-018c-43a1-a321-f70e81d01d4f_855x.jpg?v=1652912021\"]}, {\"grey\": [\"https://cdn.shopify.com/s/files/1/0156/6146/products/VITALSEAMLESSCROPTOPB1A3D-GBC7-XS-AI1SMOKEYGREYMARL60.A_ZH_ZH_1f43de8b-56ba-40a3-8222-9a272f00fe9f_855x.jpg?v=1652911540\",\"https://cdn.shopify.com/s/files/1/0156/6146/products/VITALSEAMLESSCROPTOPB1A3D-GBC7-XS-AI1SMOKEYGREYMARL92.D2_ZH_ZH_0cb86b29-f4ac-4e93-a13b-c90ef94e2d77_855x.jpg?v=1652911540\",\"https://cdn.shopify.com/s/files/1/0156/6146/products/VITALSEAMLESSCROPTOPB1A3D-GBC7-XS-AI1SMOKEYGREYMARL84.B_ZH_ZH_bf4fb500-8eb9-4e0e-8960-5906ac84c0d2_855x.jpg?v=1652911540\"]}, {\"black\": [\"https://cdn.shopify.com/s/files/1/0156/6146/products/VITALSEAMLESSCROPTOPB1A3D-BBF3-XS-AI1BLACKMARL21.A_ZH_ZH_987596d0-0b92-4504-97f8-6f1b29ab281c_855x.jpg?v=1651832380\",\"https://cdn.shopify.com/s/files/1/0156/6146/products/VITALSEAMLESSCROPTOPB1A3D-BBF3-XS-AI1BLACKMARL32.C_ZH_ZH_8c60d486-7185-466d-8b29-f55018f37b87_855x.jpg?v=1651832380\",\"https://cdn.shopify.com/s/files/1/0156/6146/products/VITALSEAMLESSCROPTOPB1A3D-BBF3-XS-AI1BLACKMARL43.D2_ZH_ZH_8e74119a-8ba5-4dc2-a1d0-25464e9d2f7a_855x.jpg?v=1651832381\"]} ]\r\n  },\r\n  {\r\n    \"id\": \"13\",\r\n    \"name\": \"Bold Joggers\",\r\n    \"price\": \"45\",\r\n    \"sizes\": [\"S\",\"M\",\"L\",\"XL\"],\r\n    \"description\": \"Loud, proud, Bold. The Bold Joggers make their identity known with a striking Gymshark graphic to the thigh, with physique-enhancing angled seams for a powerful aesthetic. This is all supported with a stay-put fit and soft cotton-poly blend for full comfort through any workout.\",\r\n    \"type\": \"slim fit\",\r\n    \"product\": \"jogger\",\r\n    \"collection\": \"bold\",\r\n    \"category\": \"men\",\r\n    \"colors\": [\"navy\", \"brown\",\"black\"],\r\n    \"images\": [{\"navy\": [\"https://cdn.shopify.com/s/files/1/0156/6146/products/BoldPantNavyA1A3W-UBCY.A-Edit.HK_988a04a3-2258-49ce-aac4-b315c295cd37_855x.jpg?v=1647041966\",\"https://cdn.shopify.com/s/files/1/0156/6146/products/BoldPantNavyA1A3W-UBCY.C-Edit.HK_b6eaee5b-a6f0-4ff8-a3e6-831f2fc9320b_855x.jpg?v=1647041966\",\"https://cdn.shopify.com/s/files/1/0156/6146/products/BoldPantNavyA1A3W-UBCY.D2-Edit.HK_e538cfdf-0e8f-48cc-90dc-f8fc980f3e3c_855x.jpg?v=1647041966\"]}, {\"brown\": [\"https://cdn.shopify.com/s/files/1/0156/6146/products/BoldPantCherryBrownA1A3W-NBCF.A-Edit.HK_f127f8f5-fd19-41d5-b281-7e3615730750_855x.jpg?v=1647041967\",\"https://cdn.shopify.com/s/files/1/0156/6146/products/BoldPantCherryBrownA1A3W-NBCF.B-Edit.HK_f0cfbccf-d4f7-46cc-a331-dec9340527c2_855x.jpg?v=1647041967\",\"https://cdn.shopify.com/s/files/1/0156/6146/products/BoldPantCherryBrownA1A3W-NBCF.C-Edit.HK_8a3139b8-69f3-448d-bd46-f5fd9a0440ef_855x.jpg?v=1647041967\"]}, {\"black\": [\"https://cdn.shopify.com/s/files/1/0156/6146/products/BoldPantBlackA1A3W.A-Edit_GB_BK_2fdff68b-3f2e-4f00-8276-37d83aee6fb7_855x.jpg?v=1647041465\",\"https://cdn.shopify.com/s/files/1/0156/6146/products/BoldPantBlackA1A3W.B-Edit_GB_BK_719c46a9-2363-48e4-b755-b781c8ef9827_855x.jpg?v=1647041465\",\"https://cdn.shopify.com/s/files/1/0156/6146/products/BoldPantBlackA1A3W.C-Edit_GB_BK_b6eaa9b5-3dc4-483b-8311-d670971ff92b_855x.jpg?v=1647041465\"]} ]\r\n  },\r\n  {\r\n    \"id\": \"14\",\r\n    \"name\": \"Arrival T-Shirt\",\r\n    \"price\": \"22\",\r\n    \"sizes\": [\"S\",\"M\",\"L\",\"XL\"],\r\n    \"description\": \"The Arrival T-Shirt is your admission to a new, purposeful approach to training. Created to encourage you to aspire more, perform more and achieve more, this gym top boasts fundamental performance technology for next-level results, with sweat-wicking technology and a lightweight material that enables maximum movement and exertion.\",\r\n    \"type\": \"slim fit\",\r\n    \"product\": \"t-shirt\",\r\n    \"collection\": \"arrival\",\r\n    \"category\": \"men\",\r\n    \"colors\": [\"grey camo\", \"yellow\",\"olive\"],\r\n    \"images\": [{\"grey camo\": [\"https://cdn.shopify.com/s/files/1/0156/6146/products/ArrivalSlimSSTopCamoA2A1K-GBGJ.AllImages1-Edit.HK_855x.jpg?v=1647042117\",\"https://cdn.shopify.com/s/files/1/0156/6146/products/ArrivalSlimSSTopCamoA2A1K-GBGJ.AllImages3-Edit.HK_855x.jpg?v=1647042117\",\"https://cdn.shopify.com/s/files/1/0156/6146/products/ArrivalSlimSSTopCamoA2A1K-GBGJ.AllImages4-Edit.HK_855x.jpg?v=1647042117\"]}, {\"yellow\": [\"https://cdn.shopify.com/s/files/1/0156/6146/products/ARRIVALSLIMSST-SHIRT-GLITCHYELLOWA_ZH_ZH_b1a47621-8cc3-489d-b147-8841a91a3fee_855x.jpg?v=1652263256\",\"https://cdn.shopify.com/s/files/1/0156/6146/products/ARRIVALSLIMSST-SHIRT-GLITCHYELLOWC_ZH_ZH_f61c59e2-1ac9-4fbb-8949-2e371d6c582d_855x.jpg?v=1652263256\",\"https://cdn.shopify.com/s/files/1/0156/6146/products/ARRIVALSLIMSST-SHIRT-GLITCHYELLOWD3_ZH_ZH_14275e23-17ab-4f55-8c07-7ddc44d574e4_855x.jpg?v=1652263256\"]}, {\"olive\": [\"https://cdn.shopify.com/s/files/1/0156/6146/products/ArrivalSlimSSTopCoreOliveA2A1K-EBF1.AllImages1-Edit.HK_855x.jpg?v=1644430203\",\"https://cdn.shopify.com/s/files/1/0156/6146/products/ArrivalSlimSSTopCoreOliveA2A1K-EBF1.AllImages3-Edit.HK_855x.jpg?v=1644430203\",\"https://cdn.shopify.com/s/files/1/0156/6146/products/ArrivalSlimSSTopCoreOliveA2A1K-EBF1.AllImages2-Edit.HK_855x.jpg?v=1644430203\"]} ]\r\n  },\r\n  {\r\n    \"id\": \"15\",\r\n    \"name\": \"\",\r\n    \"price\": \"\",\r\n    \"sizes\": [\"S\",\"M\",\"L\",\"XL\"],\r\n    \"description\": \"\",\r\n    \"type\": \"slim fit\",\r\n    \"product\": \"tank\",\r\n    \"collection\": \"bold\",\r\n    \"category\": \"men\",\r\n    \"colors\": [\"\", \"\",\"\"],\r\n    \"images\": [{\"grey\": [\"\",\"\",\"\"]}, {\"navy\": [\"\",\"\",\"\"]}, {\"orange\": [\"\",\"\",\"\"]} ]\r\n  },\r\n  {\r\n    \"id\": \"16\",\r\n    \"name\": \"\",\r\n    \"price\": \"\",\r\n    \"sizes\": [\"S\",\"M\",\"L\",\"XL\"],\r\n    \"description\": \"\",\r\n    \"type\": \"slim fit\",\r\n    \"product\": \"tank\",\r\n    \"collection\": \"bold\",\r\n    \"category\": \"men\",\r\n    \"colors\": [\"\", \"\",\"\"],\r\n    \"images\": [{\"grey\": [\"\",\"\",\"\"]}, {\"navy\": [\"\",\"\",\"\"]}, {\"orange\": [\"\",\"\",\"\"]} ]\r\n  },\r\n  {\r\n    \"id\": \"17\",\r\n    \"name\": \"\",\r\n    \"price\": \"\",\r\n    \"sizes\": [\"S\",\"M\",\"L\",\"XL\"],\r\n    \"description\": \"\",\r\n    \"type\": \"slim fit\",\r\n    \"product\": \"tank\",\r\n    \"collection\": \"bold\",\r\n    \"category\": \"men\",\r\n    \"colors\": [\"\", \"\",\"\"],\r\n    \"images\": [{\"grey\": [\"\",\"\",\"\"]}, {\"navy\": [\"\",\"\",\"\"]}, {\"orange\": [\"\",\"\",\"\"]} ]\r\n  },\r\n  {\r\n    \"id\": \"18\",\r\n    \"name\": \"\",\r\n    \"price\": \"\",\r\n    \"sizes\": [\"S\",\"M\",\"L\",\"XL\"],\r\n    \"description\": \"\",\r\n    \"type\": \"slim fit\",\r\n    \"product\": \"tank\",\r\n    \"collection\": \"bold\",\r\n    \"category\": \"men\",\r\n    \"colors\": [\"\", \"\",\"\"],\r\n    \"images\": [{\"grey\": [\"\",\"\",\"\"]}, {\"navy\": [\"\",\"\",\"\"]}, {\"orange\": [\"\",\"\",\"\"]} ]\r\n  },\r\n  {\r\n    \"id\": \"19\",\r\n    \"name\": \"\",\r\n    \"price\": \"\",\r\n    \"sizes\": [\"S\",\"M\",\"L\",\"XL\"],\r\n    \"description\": \"\",\r\n    \"type\": \"slim fit\",\r\n    \"product\": \"tank\",\r\n    \"collection\": \"bold\",\r\n    \"category\": \"men\",\r\n    \"colors\": [\"\", \"\",\"\"],\r\n    \"images\": [{\"grey\": [\"\",\"\",\"\"]}, {\"navy\": [\"\",\"\",\"\"]}, {\"orange\": [\"\",\"\",\"\"]} ]\r\n  },\r\n  {\r\n    \"id\": \"20\",\r\n    \"name\": \"\",\r\n    \"price\": \"\",\r\n    \"sizes\": [\"S\",\"M\",\"L\",\"XL\"],\r\n    \"description\": \"\",\r\n    \"type\": \"slim fit\",\r\n    \"product\": \"tank\",\r\n    \"collection\": \"bold\",\r\n    \"category\": \"men\",\r\n    \"colors\": [\"\", \"\",\"\"],\r\n    \"images\": [{\"grey\": [\"\",\"\",\"\"]}, {\"navy\": [\"\",\"\",\"\"]}, {\"orange\": [\"\",\"\",\"\"]} ]\r\n  },\r\n  {\r\n    \"id\": \"21\",\r\n    \"name\": \"\",\r\n    \"price\": \"\",\r\n    \"sizes\": [\"S\",\"M\",\"L\",\"XL\"],\r\n    \"description\": \"\",\r\n    \"type\": \"slim fit\",\r\n    \"product\": \"tank\",\r\n    \"collection\": \"bold\",\r\n    \"category\": \"men\",\r\n    \"colors\": [\"\", \"\",\"\"],\r\n    \"images\": [{\"grey\": [\"\",\"\",\"\"]}, {\"navy\": [\"\",\"\",\"\"]}, {\"orange\": [\"\",\"\",\"\"]} ]\r\n  },\r\n  {\r\n    \"id\": \"22\",\r\n    \"name\": \"\",\r\n    \"price\": \"\",\r\n    \"sizes\": [\"S\",\"M\",\"L\",\"XL\"],\r\n    \"description\": \"\",\r\n    \"type\": \"slim fit\",\r\n    \"product\": \"tank\",\r\n    \"collection\": \"bold\",\r\n    \"category\": \"men\",\r\n    \"colors\": [\"\", \"\",\"\"],\r\n    \"images\": [{\"grey\": [\"\",\"\",\"\"]}, {\"navy\": [\"\",\"\",\"\"]}, {\"orange\": [\"\",\"\",\"\"]} ]\r\n  },\r\n  {\r\n    \"id\": \"23\",\r\n    \"name\": \"\",\r\n    \"price\": \"\",\r\n    \"sizes\": [\"S\",\"M\",\"L\",\"XL\"],\r\n    \"description\": \"\",\r\n    \"type\": \"slim fit\",\r\n    \"product\": \"tank\",\r\n    \"collection\": \"bold\",\r\n    \"category\": \"men\",\r\n    \"colors\": [\"\", \"\",\"\"],\r\n    \"images\": [{\"grey\": [\"\",\"\",\"\"]}, {\"navy\": [\"\",\"\",\"\"]}, {\"orange\": [\"\",\"\",\"\"]} ]\r\n  },\r\n  {\r\n    \"id\": \"24\",\r\n    \"name\": \"\",\r\n    \"price\": \"\",\r\n    \"sizes\": [\"S\",\"M\",\"L\",\"XL\"],\r\n    \"description\": \"\",\r\n    \"type\": \"slim fit\",\r\n    \"product\": \"tank\",\r\n    \"collection\": \"bold\",\r\n    \"category\": \"men\",\r\n    \"colors\": [\"\", \"\",\"\"],\r\n    \"images\": [{\"grey\": [\"\",\"\",\"\"]}, {\"navy\": [\"\",\"\",\"\"]}, {\"orange\": [\"\",\"\",\"\"]} ]\r\n  },\r\n  {\r\n    \"id\": \"25\",\r\n    \"name\": \"\",\r\n    \"price\": \"\",\r\n    \"sizes\": [\"S\",\"M\",\"L\",\"XL\"],\r\n    \"description\": \"\",\r\n    \"type\": \"slim fit\",\r\n    \"product\": \"tank\",\r\n    \"collection\": \"bold\",\r\n    \"category\": \"men\",\r\n    \"colors\": [\"\", \"\",\"\"],\r\n    \"images\": [{\"grey\": [\"\",\"\",\"\"]}, {\"navy\": [\"\",\"\",\"\"]}, {\"orange\": [\"\",\"\",\"\"]} ]\r\n  },\r\n  {\r\n    \"id\": \"26\",\r\n    \"name\": \"\",\r\n    \"price\": \"\",\r\n    \"sizes\": [\"S\",\"M\",\"L\",\"XL\"],\r\n    \"description\": \"\",\r\n    \"type\": \"slim fit\",\r\n    \"product\": \"tank\",\r\n    \"collection\": \"bold\",\r\n    \"category\": \"men\",\r\n    \"colors\": [\"\", \"\",\"\"],\r\n    \"images\": [{\"grey\": [\"\",\"\",\"\"]}, {\"navy\": [\"\",\"\",\"\"]}, {\"orange\": [\"\",\"\",\"\"]} ]\r\n  },\r\n  {\r\n    \"id\": \"27\",\r\n    \"name\": \"\",\r\n    \"price\": \"\",\r\n    \"sizes\": [\"S\",\"M\",\"L\",\"XL\"],\r\n    \"description\": \"\",\r\n    \"type\": \"slim fit\",\r\n    \"product\": \"tank\",\r\n    \"collection\": \"bold\",\r\n    \"category\": \"men\",\r\n    \"colors\": [\"\", \"\",\"\"],\r\n    \"images\": [{\"grey\": [\"\",\"\",\"\"]}, {\"navy\": [\"\",\"\",\"\"]}, {\"orange\": [\"\",\"\",\"\"]} ]\r\n  },\r\n  {\r\n    \"id\": \"28\",\r\n    \"name\": \"\",\r\n    \"price\": \"\",\r\n    \"sizes\": [\"S\",\"M\",\"L\",\"XL\"],\r\n    \"description\": \"\",\r\n    \"type\": \"slim fit\",\r\n    \"product\": \"tank\",\r\n    \"collection\": \"bold\",\r\n    \"category\": \"men\",\r\n    \"colors\": [\"\", \"\",\"\"],\r\n    \"images\": [{\"grey\": [\"\",\"\",\"\"]}, {\"navy\": [\"\",\"\",\"\"]}, {\"orange\": [\"\",\"\",\"\"]} ]\r\n  },\r\n  {\r\n    \"id\": \"29\",\r\n    \"name\": \"\",\r\n    \"price\": \"\",\r\n    \"sizes\": [\"S\",\"M\",\"L\",\"XL\"],\r\n    \"description\": \"\",\r\n    \"type\": \"slim fit\",\r\n    \"product\": \"tank\",\r\n    \"collection\": \"bold\",\r\n    \"category\": \"men\",\r\n    \"colors\": [\"\", \"\",\"\"],\r\n    \"images\": [{\"grey\": [\"\",\"\",\"\"]}, {\"navy\": [\"\",\"\",\"\"]}, {\"orange\": [\"\",\"\",\"\"]} ]\r\n  },\r\n  {\r\n    \"id\": \"30\",\r\n    \"name\": \"\",\r\n    \"price\": \"\",\r\n    \"sizes\": [\"S\",\"M\",\"L\",\"XL\"],\r\n    \"description\": \"\",\r\n    \"type\": \"slim fit\",\r\n    \"product\": \"tank\",\r\n    \"collection\": \"bold\",\r\n    \"category\": \"men\",\r\n    \"colors\": [\"\", \"\",\"\"],\r\n    \"images\": [{\"grey\": [\"\",\"\",\"\"]}, {\"navy\": [\"\",\"\",\"\"]}, {\"orange\": [\"\",\"\",\"\"]} ]\r\n  }\r\n  ]}",
          "latency": 0,
          "statusCode": 200,
          "label": "project 2 immersive Daniel Z products",
          "headers": [
            {
              "key": "Content-Type",
              "value": "application/json"
            },
            {
              "key": "Access-Control-Allow-Origin",
              "value": ""
            },
            {
              "key": "Access-Control-Allow-Methods",
              "value": ""
            },
            {
              "key": "Access-Control-Allow-Headers",
              "value": ""
            }
          ],
          "filePath": "",
          "sendFileAsBody": false,
          "rules": [],
          "rulesOperator": "OR",
          "disableTemplating": false,
          "fallbackTo404": false,
          "default": true
        }
      ],
      "enabled": true,
      "randomResponse": false,
      "sequentialResponse": false
    }
  ],
  "proxyMode": false,
  "proxyHost": "",
  "proxyRemovePrefix": false,
  "tlsOptions": {
    "enabled": false,
    "type": "CERT",
    "pfxPath": "",
    "certPath": "",
    "keyPath": "",
    "caPath": "",
    "passphrase": ""
  },
  "cors": true,
  "headers": [
    {
      "key": "Access-Control-Allow-Origin",
      "value": "*"
    },
    {
      "key": "Access-Control-Allow-Methods",
      "value": "GET,POST,PUT,PATCH,DELETE,HEAD,OPTIONS"
    },
    {
      "key": "Access-Control-Allow-Headers",
      "value": "Content-Type, Origin, Accept, Authorization, Content-Length, X-Requested-With"
    }
  ],
  "proxyReqHeaders": [
    {
      "key": "",
      "value": ""
    }
  ],
  "proxyResHeaders": [
    {
      "key": "",
      "value": ""
    }
  ]
}